[
    {
        "name": "Minions",
        "price": 10,
        "url": "https://bi.ua/uploaded-images/products/size_400/565859_1.jpg",
        "article": 111,
        "color": "Red"
    },
    {
        "name": "Barbie",
        "price": 45,
        "url": "https://bi.ua/uploaded-images/products/size_400/552029_1.jpg",
        "article": 112,
        "color": "Blue"

    },
    {
        "name": "Paw patrol",
        "price": 25,
        "url": "https://bi.ua/uploaded-images/products/size_400/550038_1.jpg",
        "article": 113,
        "color": "Yellow"
    },  
    
    {
        "name": "Frozen Свен ",
        "price": 15,
        "url": "https://bi.ua/uploaded-images/products/size_400/549080_1.jpg",
        "article": 114,
        "color": "Nude"
    }, 

    {
        "name": "Pinkie Pie",
        "price": 20,
        "url": "https://bi.ua/uploaded-images/products/size_400/552662_1.jpg",
        "article": 115,
        "color": "Pink"
    },
    
    {
        "name": "Hermione",
        "price": 25,
        "url": "https://bi.ua/uploaded-images/products/size_400/570245_1.jpg",
        "article": 116,
        "color": "Grey"
    }, 

    {
        "name": "Peppa Pig School",
        "price": 28,
        "url": "https://bi.ua/uploaded-images/products/size_400/569635_1.jpg",
        "article": 117,
        "color": "Pink"
    },

    {
        "name": "Transformers",
        "price": 35,
        "url": "https://bi.ua/uploaded-images/products/size_400/552787_1.jpg",
        "article": 118,
        "color": "Purple"
    }, 

    {
        "name": "Superman",
        "price": 9,
        "url": "https://bi.ua/uploaded-images/products/size_400/556353_1.jpg",
        "article": 119,
        "color": "Dark Blue"
    },
    
    {
        "name": "Super Wings Crystal",
        "price": 13,
        "url": "https://bi.ua/uploaded-images/products/size_400/567540_1.jpg",
        "article": 120,
        "color": "Purple"
    }
]
     
